<?xml version="1.0" encoding="utf-8"?>
<!-- Generator: Adobe Illustrator 16.0.0, SVG Export Plug-In . SVG Version: 6.00 Build 0)  -->
<!DOCTYPE svg PUBLIC "-//W3C//DTD SVG 1.1//EN" "http://www.w3.org/Graphics/SVG/1.1/DTD/svg11.dtd">
<svg version="1.1" id="Layer_1" xmlns="http://www.w3.org/2000/svg" xmlns:xlink="http://www.w3.org/1999/xlink" x="0px" y="0px"
	 width="52.707px" height="23.776px" viewBox="0 0 52.707 23.776" enable-background="new 0 0 52.707 23.776" xml:space="preserve">
<path fill="#AECA36" d="M48.223,5.558c-0.499-0.359-1.051-0.588-1.615-0.694c0,0-0.644,2.112-4.643,1.74
	c-2.055-0.191-4.207-1.129-4.207-1.129c-0.387-0.17-0.808-0.282-1.252-0.324c-2.25-0.209-4.241,1.48-4.447,3.772
	c-0.055,0.62,0.026,1.221,0.217,1.772c0.002-0.001,0.003-0.001,0.005-0.002l-0.006,0.004c0,0,2.065-0.683,4.074,2.859
	c0.806,1.42,1.292,3.151,1.467,3.844c0.02,0.103,0.045,0.205,0.073,0.307c0.001,0.002,0.001,0.003,0.001,0.003
	c0.057,0.204,0.131,0.407,0.221,0.606c0.948,2.09,3.379,3.002,5.431,2.037c0.555-0.262,1.024-0.634,1.397-1.078
	c0,0-1.33-1.748,1.262-4.873c0.961-1.16,1.272-1.51,1.994-2.01c0.002-0.002,0.002-0.002,0.004-0.004
	c0.381-0.271,0.724-0.612,1.008-1.021C50.51,9.485,50.068,6.884,48.223,5.558 M43.113,13.549c-1.024,0.583-4.09-2.948-7.79-2.527
	c4.475-0.852,8.168,2.285,9.551,1.481L43.113,13.549z M45.386,12.201c-1.118,0.646-4.998-1.975-9.568-1.371
	c5.133-1.066,10.226,0.946,11.489,0.215L45.386,12.201z"/>
<path fill="#9C9C9C" d="M41.036,0c-6.435,0-11.671,5.333-11.671,11.887c0,0.463,0.027,0.92,0.078,1.369h1.006
	c-0.056-0.447-0.085-0.904-0.085-1.369c0-5.994,4.787-10.87,10.672-10.87c5.884,0,10.671,4.876,10.671,10.87
	c0,5.994-4.787,10.871-10.671,10.871c-2.379,0-4.578-0.797-6.354-2.143h-1.561c2.082,1.96,4.863,3.16,7.915,3.16
	c6.436,0,11.671-5.333,11.671-11.889C52.707,5.333,47.472,0,41.036,0"/>
<g>
	<path fill="#9C9C9C" d="M0.462,7.709v2.794c0,1.059,0.352,1.506,0.824,1.506c0.525,0,0.861-0.461,0.861-1.506V7.709h0.462v2.753
		c0,1.449-0.572,2.045-1.338,2.045C0.546,12.507,0,11.955,0,10.49v-2.78H0.462z"/>
	<path fill="#9C9C9C" d="M3.402,7.772c0.231-0.063,0.562-0.098,0.876-0.098c0.488,0,0.803,0.119,1.024,0.385
		C5.48,8.27,5.58,8.592,5.58,8.956c0,0.624-0.294,1.037-0.667,1.206v0.021c0.273,0.126,0.436,0.462,0.52,0.952
		c0.116,0.658,0.2,1.113,0.273,1.296H5.234c-0.058-0.134-0.137-0.539-0.236-1.128c-0.105-0.65-0.294-0.896-0.708-0.917H3.858v2.045
		H3.402V7.772z M3.858,9.923h0.467c0.488,0,0.798-0.357,0.798-0.897c0-0.609-0.331-0.875-0.813-0.882
		c-0.221,0-0.378,0.028-0.452,0.056V9.923z"/>
	<path fill="#9C9C9C" d="M8.699,12.276C8.531,12.388,8.195,12.5,7.765,12.5c-0.998,0-1.748-0.84-1.748-2.388
		c0-1.478,0.75-2.479,1.848-2.479c0.441,0,0.719,0.126,0.84,0.21L8.594,8.34C8.42,8.228,8.174,8.144,7.88,8.144
		c-0.829,0-1.38,0.707-1.38,1.947c0,1.155,0.499,1.897,1.359,1.897c0.278,0,0.562-0.077,0.746-0.196L8.699,12.276z M7.502,7.437
		L6.956,6.638h0.383l0.336,0.49h0.011l0.331-0.49h0.378L7.854,7.437H7.502z"/>
	<path fill="#9C9C9C" d="M11.104,10.216H9.728v1.703h1.533v0.511H9.271V7.709h1.911v0.511H9.728v1.492h1.375V10.216z"/>
	<path fill="#9C9C9C" d="M11.854,12.43V7.709h0.499l1.134,2.389c0.263,0.554,0.467,1.05,0.635,1.534l0.01-0.008
		c-0.042-0.63-0.052-1.205-0.052-1.939V7.709h0.43v4.721h-0.462l-1.123-2.396c-0.247-0.525-0.483-1.064-0.661-1.576l-0.016,0.007
		c0.026,0.596,0.037,1.163,0.037,1.948v2.017H11.854z"/>
	<path fill="#9C9C9C" d="M18.332,10.021c0,1.625-0.74,2.486-1.643,2.486c-0.934,0-1.59-0.967-1.59-2.396
		c0-1.499,0.698-2.479,1.643-2.479C17.708,7.633,18.332,8.62,18.332,10.021z M15.587,10.098c0,1.009,0.409,1.911,1.128,1.911
		c0.725,0,1.134-0.889,1.134-1.961c0-0.938-0.367-1.918-1.128-1.918C15.965,8.13,15.587,9.062,15.587,10.098z"/>
	<path fill="#9C9C9C" d="M20.039,7.766c0.22-0.049,0.509-0.091,0.876-0.091c0.452,0,0.782,0.14,0.992,0.392
		c0.194,0.224,0.31,0.567,0.31,0.987c0,0.428-0.094,0.764-0.273,1.009c-0.241,0.343-0.635,0.519-1.081,0.519
		c-0.137,0-0.263-0.008-0.368-0.043v1.892h-0.457V7.766z M20.496,10.042c0.1,0.035,0.226,0.049,0.378,0.049
		c0.551,0,0.887-0.357,0.887-1.009c0-0.624-0.331-0.925-0.834-0.925c-0.2,0-0.352,0.021-0.431,0.049V10.042z"/>
	<path fill="#9C9C9C" d="M22.832,7.772c0.231-0.063,0.562-0.098,0.876-0.098c0.488,0,0.803,0.119,1.023,0.385
		c0.179,0.21,0.278,0.533,0.278,0.896c0,0.624-0.294,1.037-0.667,1.206v0.021c0.273,0.126,0.436,0.462,0.52,0.952
		c0.116,0.658,0.2,1.113,0.273,1.296h-0.472c-0.058-0.134-0.137-0.539-0.236-1.128c-0.105-0.65-0.294-0.896-0.708-0.917h-0.431
		v2.045h-0.457V7.772z M23.289,9.923h0.467c0.488,0,0.798-0.357,0.798-0.897c0-0.609-0.331-0.875-0.813-0.882
		c-0.221,0-0.378,0.028-0.452,0.056V9.923z"/>
	<path fill="#9C9C9C" d="M28.633,10.021c0,1.625-0.74,2.486-1.643,2.486c-0.934,0-1.59-0.967-1.59-2.396
		c0-1.499,0.698-2.479,1.643-2.479C28.008,7.633,28.633,8.62,28.633,10.021z M25.888,10.098c0,1.009,0.409,1.911,1.128,1.911
		c0.725,0,1.134-0.889,1.134-1.961c0-0.938-0.367-1.918-1.128-1.918C26.266,8.13,25.888,9.062,25.888,10.098z"/>
</g>
<g>
	<path fill="#9C9C9C" d="M0.005,14.765c0.221-0.049,0.509-0.09,0.876-0.09c0.452,0,0.782,0.139,0.992,0.392
		c0.194,0.224,0.31,0.567,0.31,0.987c0,0.428-0.094,0.764-0.273,1.009c-0.241,0.343-0.635,0.519-1.081,0.519
		c-0.137,0-0.263-0.008-0.368-0.043v1.892H0.005V14.765z M0.462,17.042c0.1,0.035,0.226,0.049,0.378,0.049
		c0.551,0,0.887-0.357,0.887-1.009c0-0.624-0.331-0.925-0.834-0.925c-0.2,0-0.352,0.021-0.431,0.049V17.042z"/>
	<path fill="#9C9C9C" d="M2.798,14.773c0.231-0.063,0.562-0.098,0.876-0.098c0.488,0,0.803,0.118,1.024,0.385
		c0.178,0.21,0.278,0.532,0.278,0.896c0,0.623-0.294,1.036-0.667,1.205v0.021c0.273,0.126,0.436,0.462,0.52,0.952
		c0.116,0.658,0.2,1.113,0.273,1.296H4.63c-0.058-0.134-0.137-0.539-0.236-1.128c-0.105-0.65-0.294-0.896-0.708-0.917H3.255v2.045
		H2.798V14.773z M3.255,16.923h0.467c0.488,0,0.798-0.357,0.798-0.896c0-0.609-0.331-0.876-0.813-0.883
		c-0.221,0-0.378,0.027-0.452,0.056V16.923z"/>
	<path fill="#9C9C9C" d="M8.599,17.021c0,1.625-0.74,2.486-1.643,2.486c-0.934,0-1.59-0.967-1.59-2.396
		c0-1.499,0.698-2.479,1.643-2.479C7.975,14.632,8.599,15.621,8.599,17.021z M5.854,17.098c0,1.009,0.409,1.911,1.128,1.911
		c0.724,0,1.134-0.889,1.134-1.961c0-0.938-0.368-1.918-1.128-1.918C6.232,15.13,5.854,16.062,5.854,17.098z"/>
	<path fill="#9C9C9C" d="M9.193,14.709h1.905v0.511H9.649v1.569h1.338v0.505H9.649v2.136H9.193V14.709z"/>
	<path fill="#9C9C9C" d="M13.582,17.216h-1.375v1.703h1.533v0.511H11.75v-4.721h1.911v0.511h-1.454v1.492h1.375V17.216z"/>
	<path fill="#9C9C9C" d="M14.27,18.688c0.205,0.168,0.504,0.308,0.819,0.308c0.467,0,0.74-0.328,0.74-0.805
		c0-0.441-0.189-0.693-0.667-0.939c-0.577-0.272-0.934-0.672-0.934-1.338c0-0.734,0.457-1.281,1.144-1.281
		c0.362,0,0.625,0.112,0.782,0.231l-0.126,0.497c-0.115-0.084-0.352-0.225-0.672-0.225c-0.483,0-0.667,0.386-0.667,0.708
		c0,0.441,0.215,0.658,0.704,0.911c0.598,0.308,0.902,0.693,0.902,1.387c0,0.729-0.404,1.357-1.238,1.357
		c-0.341,0-0.714-0.133-0.903-0.301L14.27,18.688z"/>
	<path fill="#9C9C9C" d="M17.377,14.709v4.721h-0.457v-4.721H17.377z"/>
	<path fill="#9C9C9C" d="M21.199,17.021c0,1.625-0.74,2.486-1.643,2.486c-0.934,0-1.59-0.967-1.59-2.396
		c0-1.499,0.698-2.479,1.643-2.479C20.574,14.632,21.199,15.621,21.199,17.021z M18.454,17.098c0,1.009,0.409,1.911,1.128,1.911
		c0.724,0,1.134-0.889,1.134-1.961c0-0.938-0.368-1.918-1.128-1.918C18.832,15.13,18.454,16.062,18.454,17.098z"/>
	<path fill="#9C9C9C" d="M21.792,19.43v-4.721h0.499l1.134,2.389c0.263,0.554,0.467,1.05,0.635,1.534l0.011-0.008
		c-0.042-0.63-0.053-1.205-0.053-1.939v-1.976h0.431v4.721h-0.462l-1.124-2.396c-0.247-0.525-0.483-1.064-0.662-1.576l-0.016,0.008
		c0.026,0.596,0.037,1.162,0.037,1.947v2.017H21.792z"/>
	<path fill="#9C9C9C" d="M25.819,17.945l-0.368,1.485h-0.472l1.202-4.721h0.551l1.208,4.721h-0.488l-0.378-1.485H25.819z
		 M26.979,17.469l-0.346-1.358c-0.079-0.309-0.131-0.589-0.184-0.861h-0.011c-0.052,0.279-0.11,0.566-0.178,0.854l-0.347,1.366
		H26.979z M27.231,13.638l-0.667,0.819h-0.378l0.488-0.819H27.231z"/>
	<path fill="#9C9C9C" d="M28.46,14.709h0.457v4.21h1.512v0.511H28.46V14.709z"/>
	<path fill="#9C9C9C" d="M31.311,19.43v-2.003l-1.118-2.718h0.52l0.499,1.303c0.137,0.357,0.242,0.645,0.352,0.974h0.01
		c0.1-0.309,0.22-0.616,0.357-0.974l0.509-1.303h0.52l-1.186,2.71v2.011H31.311z"/>
</g>
</svg>
